{
	"id": "2b496c85-02e3-4bb4-a75f-35f587b1135b",
	"name": "Trello",
	"values": [
		{
			"key": "trello key",
			"value": "c572112e245dded9a5641809c749e3f6",
			"enabled": true
		},
		{
			"key": "trello token",
			"value": "64e5ba740b60c7f3e12ba5e60512b081cfcf36167ccdffca4867f00dfcfde249",
			"enabled": true
		},
		{
			"key": "idList",
			"value": "5cb57066811ff35ebb1abf53",
			"enabled": true
		},
		{
			"key": "id",
			"value": "5cb55580a94c5e5ec537bbe2",
			"enabled": true
		},
		{
			"key": "doneList",
			"value": "5cb5709129f2e9726a6e7512",
			"enabled": true
		},
		{
			"key": "currentBoardNumber",
			"value": 14,
			"enabled": true
		}
	],
	"_postman_variable_scope": "environment",
	"_postman_exported_at": "2019-06-05T07:39:31.006Z",
	"_postman_exported_using": "Postman/7.1.1"
}